<?xml version="1.0" standalone="no"?>
<!DOCTYPE svg PUBLIC "-//W3C//DTD SVG 1.1//EN" "http://www.w3.org/Graphics/SVG/1.1/DTD/svg11.dtd">
<svg xmlns="http://www.w3.org/2000/svg">
<metadata>Copyright (C) 2020 by original authors @ fontello.com</metadata>
<defs>
<font id="navicon" horiz-adv-x="1000" >
<font-face font-family="navicon" font-weight="400" font-stretch="normal" units-per-em="1000" ascent="850" descent="-150" />
<missing-glyph horiz-adv-x="1000" />
<glyph glyph-name="icon1" unicode="&#xe800;" d="M547-93c-18 0-36 7-48 20l-48 48c-13 11-19 28-15 45 4 16 17 29 34 33 16 4 33-2 45-15l32-32 15 16c4 4 6 8 7 13l26 186c3 20 12 37 26 51l113 113c76 76 119 179 119 287v88h-87c-108 0-212-43-288-120l-112-112c-14-14-32-23-51-26l-187-27c-5 0-9-3-13-6l-16-16 33-32c12-11 18-28 14-45-4-16-17-29-33-33-17-4-34 1-45 14l-48 48c-27 27-27 70 0 96l32 32c17 17 40 29 64 32l186 27 113 112c93 94 220 146 352 146h131c25 0 46-20 46-45v-133c0-132-52-258-146-351l-113-113-26-187c-4-24-15-46-32-64l-32-32c-13-12-31-19-48-18z m-224 131l64 64c15 18 14 45-3 62-17 16-43 17-61 2l-64-64c-13-11-18-28-15-45 4-16 17-29 34-33 16-4 34 2 45 14z m-192 64l128 128c15 18 14 45-2 62-17 16-44 17-62 2l-128-128c-13-11-18-28-14-45 4-16 17-29 33-33 17-4 34 1 45 14z m576 320c53 53 53 139 0 192-11 12-29 18-45 14-17-4-30-17-34-33-4-17 2-34 15-45 8-9 13-20 13-32 0-12-5-24-13-32-18-18-46-18-64 0-8 8-13 20-13 32 0 12 5 23 13 32 16 18 14 45-2 61-17 17-44 18-62 3-36-34-51-85-39-133 13-48 50-86 98-98 48-12 99 3 133 39h0z" horiz-adv-x="1000" />

<glyph glyph-name="icon2" unicode="&#xe801;" d="M170-150c-19 0-37 2-55 7-66 22-112 82-115 152 0 130 133 164 204 164 22 0 40-18 40-41 0-23-18-41-40-41-5 0-123 0-123-82 4-32 25-59 54-72 45-11 91-1 127 28 40 32 64 80 64 132v587c1 53 24 103 65 137 29 25 67 34 105 26 104-24 237-171 237-301-4-68-43-128-103-159-21-10-45-2-55 18-10 20-2 45 18 55 33 17 55 50 59 86 0 94-109 205-175 222-13 3-26-1-36-10-21-18-33-45-33-73v-587c-1-77-36-149-96-197-40-32-90-50-142-51z" horiz-adv-x="733" />

<glyph glyph-name="icon3" unicode="&#xe802;" d="M643-149h-267c-23 0-42 19-42 42 0 23 19 42 42 42h267c14 0 26 11 26 25v482c0 7-2 14-7 19l-130 130c-5 5-12 8-19 7h-236c-14 0-26-11-26-26v-680c0-23-19-42-42-42-23 0-42 19-42 42v680c1 61 50 110 111 110h236c29 0 57-12 78-32l130-131c20-20 32-48 32-77v-482c-1-61-50-110-111-109z m-560 209v680c1 15 12 26 27 26h278c23 0 42 19 42 42 0 23-19 42-42 42h-278c-61 0-110-49-110-110v-680c0-23 19-42 42-42 23 0 42 19 42 42l-1 0z" horiz-adv-x="813" />

<glyph glyph-name="icon4" unicode="&#xe803;" d="M625-150h-417c-23 0-41 19-41 42 0 23 18 41 41 41h417c23 0 42 19 42 42v173c-2 23-16 44-37 55-164 65-346 65-510 0-20-11-35-32-37-55v-256c0-23-18-42-41-42-23 0-42 19-42 42v256c2 57 37 109 89 132 184 74 389 74 572 0 53-23 87-75 89-132v-173c0-69-56-125-125-125z m-42 792c0 115-93 208-208 208-115 0-208-93-208-208 0-115 93-209 208-209 115 0 208 94 208 209z m-83 0c0-69-56-125-125-125-69 0-125 56-125 125 0 69 56 125 125 125 69 0 125-56 125-125z" horiz-adv-x="750" />

<glyph glyph-name="icon5" unicode="&#xe804;" d="M105-79c-9 0-18 3-26 7-49 28-79 80-79 137v628c0 56 30 108 79 136 16 10 36 11 53 2 17-10 27-28 27-47 0-19-11-37-28-45-16-10-26-27-26-46v-628c0-19 10-36 26-46 21-12 31-36 25-59-6-23-27-39-51-39z m1073 8c49 28 79 80 78 136v628c0 56-29 107-78 136-16 10-36 10-53 1-17-9-27-27-27-46 0-20 11-37 28-46 16-9 26-26 26-45v-628c0-19-10-36-26-46-17-9-28-26-28-46 0-19 10-37 27-46 17-9 37-9 53 2h0z m-864 83c-29 0-52-23-52-52 0-29 23-52 52-52 29 0 52 23 52 52 0 29-23 52-52 52z m210 0c-29 0-53-23-53-52 0-29 24-52 53-52 28 0 52 23 52 52 0 29-24 52-52 52z m209 0c-29 0-52-23-52-52 0-29 23-52 52-52 29 0 52 23 52 52 0 29-23 52-52 52z m209 0c-29 0-52-23-52-52 0-29 23-52 52-52 29 0 53 23 53 52 0 29-24 52-53 52z m-628 838c-29 0-52-23-52-52 0-29 23-53 52-53 29 0 52 24 52 53 0 29-23 52-52 52z m210 0c-29 0-53-23-53-52 0-29 24-53 53-53 28 0 52 24 52 53 0 29-24 52-52 52z m209 0c-29 0-52-23-52-52 0-29 23-53 52-53 29 0 52 24 52 53 0 29-23 52-52 52z m209 0c-29 0-52-23-52-52 0-29 23-53 52-53 29 0 53 24 53 53 0 29-24 52-53 52z m-366-681v315l161-126-30-18c-17-9-28-26-28-46-1-19 10-37 27-46 16-9 37-9 53 2l98 57c14 8 24 24 25 41 1 18-6 34-20 45l-307 239c-15 13-37 15-55 6-18-9-29-27-29-47v-419c0-29 23-52 52-52 29 0 52 23 52 52l1-3z" horiz-adv-x="1308" />

<glyph glyph-name="icon6" unicode="&#xe805;" d="M931-150h-364c-38 0-75 16-102 42l-67 68c-14 11-20 29-16 47 5 17 18 31 36 35 17 4 36-2 47-15l68-67c9-9 21-14 34-14h364c22-1 42 14 48 36l80 334c3 14-1 30-10 41-9 11-24 18-38 18h-358c-33 0-64 17-82 45-17 28-19 63-4 92l83 165c8 16 7 36-2 52-10 16-27 26-46 26l-207-308c-39-59-64-126-71-196l-27-272c-7-74-70-129-144-129h-9c-80 0-144 64-144 143v381c0 79 64 143 144 143 26 0 48-21 48-48 0-26-22-47-48-47-27 0-48-22-48-48v-381c0-26 21-48 48-48h9c25 0 45 19 48 43l27 273c9 85 38 167 86 238l207 309c18 26 47 42 79 42 53 0 101-27 129-71 27-44 30-99 6-146l-83-164h358c44 0 86-20 113-54 27-35 37-79 27-122l-80-333c-16-64-73-109-139-110z" horiz-adv-x="1154" />

<glyph glyph-name="icon7" unicode="&#xe806;" d="M629 104c-29 0-53 24-53 54v413l-87 173h-360l54-107h233c29 0 53-24 53-53 0-30-24-54-53-54h-256c-27 0-51 15-62 39l-91 181c-10 21-9 47 3 67 13 21 35 33 59 33h421c40 0 77-23 95-59l98-195v-439c0-14-6-28-16-37-10-10-24-16-38-16z m533-53v320c0 29-24 53-54 53-29 0-53-24-53-53v-320c0-29-24-53-53-53h-746c-29 0-53 24-53 53v320c0 29-24 53-53 53-30 0-54-24-54-53v-320c0-88 72-160 160-160h746c42 0 83 17 113 47 30 30 47 71 47 113z m0 518l90 181c11 21 10 47-3 67-12 21-35 33-59 33h-454c-30 0-54-24-54-53 0-30 24-53 54-53h393l-54-107h-233c-29 0-53-24-53-53 0-30 24-54 53-54h256c27 0 51 15 63 39h1z" horiz-adv-x="1308" />

<glyph glyph-name="icon8" unicode="&#xe807;" d="M1010-112h-96c-27 0-49 22-49 48 0 27 22 49 49 49h96c26 0 48 21 48 48v481c0 26-22 48-48 48h-770c-26 0-48 21-48 48 0 26 22 48 48 48h770c79 0 144-65 144-144v-481c0-80-65-145-144-145z m-673 48c0 27-22 49-48 49h-145c-26 0-48 21-48 48v673c0 26 22 48 48 48h297c13 0 25-5 34-14l20-20c19-16 47-15 65 3 18 18 19 46 3 65l-20 20c-27 27-64 42-102 42h-297c-79 0-144-65-144-144v-673c0-80 65-145 144-145h145c26 0 48 22 48 48z m274-34l192 193c17 19 16 47-2 65-18 18-46 19-65 3l-110-111v365c0 27-22 48-49 48-26 0-48-21-48-48v-481c0-19 12-37 30-44 18-8 39-4 53 10h-1z m-144 145c19 18 19 49 0 67l-48 49c-12 13-30 19-48 15-18-4-31-18-35-35-5-18 1-36 15-48l48-48c19-19 49-19 68 0z" horiz-adv-x="1154" />

<glyph glyph-name="icon9" unicode="&#xe808;" d="M919-150h-762c-87 0-157 71-157 158v684c0 87 70 158 157 158h322c41 0 81-17 111-46l43-44c10-10 23-15 37-15h270c29 0 52-24 52-53 0-29-23-52-52-52h-270c-42 0-81 16-111 46l-43 44c-10 9-23 15-37 15h-322c-29 0-53-24-53-53v-684c0-29 24-53 53-53h762c22 0 42 14 49 35l157 439h-670l-92-280c-9-28-39-43-66-33-27 9-42 39-33 66l92 280c14 43 54 72 99 72h671c34 0 66-16 86-45 19-28 24-64 13-96l-157-439c-23-63-82-105-149-104z" horiz-adv-x="1231" />

<glyph glyph-name="icon10" unicode="&#xe809;" d="M1050-150h-900c-83 0-150 67-150 150v700c0 83 67 150 150 150h309c39 0 77-16 106-44l20-20c17-20 16-50-3-68-18-19-48-20-67-3l-21 21c-9 9-22 14-35 14h-309c-28 0-50-22-50-50v-700c0-28 22-50 50-50h900c28 0 50 22 50 50v500c0 28-22 50-50 50h-800c-28 0-50 22-50 50 0 28 22 50 50 50h800c83 0 150-67 150-150v-500c0-40-16-78-44-106-28-28-66-44-106-44z m-400 500v50c0 28-22 50-50 50-28 0-50-22-50-50v-50c0-28 22-50 50-50 28 0 50 22 50 50z m0-250v50c0 28-22 50-50 50-28 0-50-22-50-50v-50c0-28 22-50 50-50 28 0 50 22 50 50z m-100 150c0 28-22 50-50 50h-50c-28 0-50-22-50-50 0-28 22-50 50-50h50c28 0 50 22 50 50z m250 0c0 28-22 50-50 50h-50c-28 0-50-22-50-50 0-28 22-50 50-50h50c28 0 50 22 50 50z" horiz-adv-x="1214" />
</font>
</defs>
</svg>